Project 1: Wrangling, Exploration, Visualization
…
Tidying: Reshaping

If your datasets are tidy already, demonstrate that you can reshape data with pivot wider/longer here (e.g., untidy and then retidy). Alternatively, it may be easier to wait until the wrangling section so you can reshape your summary statistics. Note here if you are going to do this.

untidy1 <- pokemon1 %>% pivot_wider(names_from = "type1", values_from = "attack")
untidy1

## # A tibble: 801 x 20
##    name  defense grass  fire water   bug normal poison electric ground fairy
##    <chr>   <dbl> <dbl> <dbl> <dbl> <dbl>  <dbl>  <dbl>    <dbl>  <dbl> <dbl>
##  1 Bulb      49    49    NA    NA    NA     NA     NA       NA     NA    NA
##  2 Ivys      63    62    NA    NA    NA     NA     NA       NA     NA    NA
##  3 Venu     123   100    NA    NA    NA     NA     NA       NA     NA    NA
##  4 Char      43    NA    52    NA    NA     NA     NA       NA     NA    NA
##  5 Char      58    NA    64    NA    NA     NA     NA       NA     NA    NA
##  6 Char      78    NA   104    NA    NA     NA     NA       NA     NA    NA
##  7 Squi      65    NA    NA    48    NA     NA     NA       NA     NA    NA
##  8 Wart      80    NA    NA    63    NA     NA     NA       NA     NA    NA
##  9 Blas     120    NA    NA   103    NA     NA     NA       NA     NA    NA
## 10 Cate      35    NA    NA    NA    30     NA     NA       NA     NA    NA
## #  with 791 more rows, and 9 more variables: fighting <dbl>, psychic <dbl>,
## #   rock <dbl>, ghost <dbl>, ice <dbl>, dragon <dbl>, dark <dbl>, steel <dbl>,
## #   flying <dbl>

untidy1 %>% pivot_longer(cols = grass:flying, names_to = "type1", 
    values_to = "attack", values_drop_na = T)

## # A tibble: 801 x 4
##    name       defense type1 attack
##    <chr>        <dbl> <chr>  <dbl>
##  1 Bulbasaur       49 grass     49
##  2 Ivysaur         63 grass     62
##  3 Venusaur       123 grass    100
##  4 Charmander      43 fire      52
##  5 Charmeleon      58 fire      64
##  6 Charizard       78 fire     104
##  7 Squirtle        65 water     48
##  8 Wartortle       80 water     63
##  9 Blastoise      120 water    103
## 10 Caterpie        35 bug       30
## #  with 791 more rows

untidy2 <- pokemon2 %>% pivot_wider(names_from = "Generation", 
    values_from = "HP")
untidy2

## # A tibble: 800 x 7
##    Name                        `1`   `2`   `3`   `4`   `5`   `6`
##    <chr>                     <dbl> <dbl> <dbl> <dbl> <dbl> <dbl>
##  1 Bulbasaur                    45    NA    NA    NA    NA    NA
##  2 Ivysaur                      60    NA    NA    NA    NA    NA
##  3 Venusaur                     80    NA    NA    NA    NA    NA
##  4 VenusaurMega Venusaur        80    NA    NA    NA    NA    NA
##  5 Charmander                   39    NA    NA    NA    NA    NA
##  6 Charmeleon                   58    NA    NA    NA    NA    NA
##  7 Charizard                    78    NA    NA    NA    NA    NA
##  8 CharizardMega Charizard X    78    NA    NA    NA    NA    NA
##  9 CharizardMega Charizard Y    78    NA    NA    NA    NA    NA
## 10 Squirtle                     44    NA    NA    NA    NA    NA
## #  with 790 more rows

untidy2 %>% pivot_longer(cols = "1":"6", names_to = "Generation", 
    values_to = "HP", values_drop_na = T)

## # A tibble: 800 x 3
##    Name                      Generation    HP
##    <chr>                     <chr>      <dbl>
##  1 Bulbasaur                 1             45
##  2 Ivysaur                   1             60
##  3 Venusaur                  1             80
##  4 VenusaurMega Venusaur     1             80
##  5 Charmander                1             39
##  6 Charmeleon                1             58
##  7 Charizard                 1             78
##  8 CharizardMega Charizard X 1             78
##  9 CharizardMega Charizard Y 1             78
## 10 Squirtle                  1             44
## #  with 790 more rows
…
pokemon2 %>% summarize_all(n_distinct)

## # A tibble: 1 x 3
##    Name    HP Generation
##   <int> <int>      <int>
## 1   800    94          6

totalpokemon <- inner_join(pokemon1, pokemon2, by = c(name = "Name"))
anti_join(pokemon1, pokemon2, by = c(name = "Name"))

## # A tibble: 97 x 4
##    name       attack defense type1   
##    <chr>       <dbl>   <dbl> <chr>   
##  1 Ho-Oh         130      90 fire    
##  2 Deoxys         95      90 psychic 
##  3 Wormadam       69      95 bug     
##  4 Giratina      120     100 ghost   
##  5 Shaymin       103      75 grass   
##  6 Darmanitan     30     105 fire    
##  7 Tornadus      100      80 flying  
##  8 Thundurus     105      70 electric
##  9 Landorus      145      90 ground  
## 10 Keldeo         72      90 water   
## #  with 87 more rows

semi_join(pokemon1, pokemon2, by = c(name = "Name"))

## # A tibble: 704 x 4
##    name       attack defense type1
##    <chr>       <dbl>   <dbl> <chr>
##  1 Bulbasaur      49      49 grass
##  2 Ivysaur        62      63 grass
##  3 Venusaur      100     123 grass
##  4 Charmander     52      43 fire 
##  5 Charmeleon     64      58 fire 
##  6 Charizard     104      78 fire 
##  7 Squirtle       48      65 water
##  8 Wartortle      63      80 water
##  9 Blastoise     103     120 water
## 10 Caterpie       30      35 bug  
## #  with 694 more rows

I did an inner join on the two datasets. In pokemon1, there were 801 observations and 4 ID columns, with a total of 1046 unique IDs throughout the whole dataset. In pokemon2, there were 800 observations and 3 ID columns with a total of 900 unique IDS in the whole dataset. After the join, 96 observations in pokemon1 and 97 observations in pokemon2 were dropped after doing the join. There were 97 observations in pokemon1 that were not in pokemon2, but both datasets shared 704 observations. I did the inner join because it dropped unmatched rows in either dataset without a match and keeps the number of rows equal to the intersection of IDs. The two datasets had overlapping data for the observations, so I wanted to keep only the data for the matching observations in each dataset. A potential problem for the dropped observations is that it leaves out data, which could skew future calculations or plots. #

Wrangling

# Using select and filter
totalpokemon %>% select(name, Generation, everything()) %>% filter(Generation == 
    "1")

## # A tibble: 151 x 6
##    name       Generation attack defense type1    HP
##    <chr>           <dbl>  <dbl>   <dbl> <chr> <dbl>
##  1 Bulbasaur           1     49      49 grass    45
##  2 Ivysaur             1     62      63 grass    60
##  3 Venusaur            1    100     123 grass    80
##  4 Charmander          1     52      43 fire     39
##  5 Charmeleon          1     64      58 fire     58
##  6 Charizard           1    104      78 fire     78
##  7 Squirtle            1     48      65 water    44
##  8 Wartortle           1     63      80 water    59
##  9 Blastoise           1    103     120 water    79
## 10 Caterpie            1     30      35 bug      45
## #  with 141 more rows

# Using select and arrange
totalpokemon %>% select(name, HP, everything()) %>% arrange(HP)

## # A tibble: 704 x 6
##    name         HP attack defense type1    Generation
##    <chr>     <dbl>  <dbl>   <dbl> <chr>         <dbl>
##  1 Shedinja      1     90      45 bug               3
##  2 Diglett      10     55      30 ground            1
##  3 Magikarp     20     10      55 water             1
##  4 Pichu        20     40      15 electric          2
##  5 Shuckle      20     10     230 bug               2
##  6 Feebas       20     15      20 water             3
##  7 Duskull      20     40      90 ghost             3
##  8 Mime Jr.     20     25      45 psychic           4
##  9 Abra         25     20      15 psychic           1
## 10 Magnemite    25     35      70 electric          1
## #  with 694 more rows

# Using select and group_by
totalpokemon %>% select(name, type1, everything()) %>% group_by(type1)

## # A tibble: 704 x 6
## # Groups:   type1 [18]
##    name       type1 attack defense    HP Generation
##    <chr>      <chr>  <dbl>   <dbl> <dbl>      <dbl>
##  1 Bulbasaur  grass     49      49    45          1
##  2 Ivysaur    grass     62      63    60          1
##  3 Venusaur   grass    100     123    80          1
##  4 Charmander fire      52      43    39          1
##  5 Charmeleon fire      64      58    58          1
##  6 Charizard  fire     104      78    78          1
##  7 Squirtle   water     48      65    44          1
##  8 Wartortle  water     63      80    59          1
##  9 Blastoise  water    103     120    79          1
## 10 Caterpie   bug       30      35    45          1
## #  with 694 more rows

# Using select and mutate to generate a variable that is a
# function of at least one other variable
totalpokemon %>% mutate(offense = attack - defense) %>% select(name, 
    offense, everything())

## # A tibble: 704 x 7
##    name       offense attack defense type1    HP Generation
##    <chr>        <dbl>  <dbl>   <dbl> <chr> <dbl>      <dbl>
##  1 Bulbasaur        0     49      49 grass    45          1
##  2 Ivysaur         -1     62      63 grass    60          1
##  3 Venusaur       -23    100     123 grass    80          1
##  4 Charmander       9     52      43 fire     39          1
##  5 Charmeleon       6     64      58 fire     58          1
##  6 Charizard       26    104      78 fire     78          1
##  7 Squirtle       -17     48      65 water    44          1
##  8 Wartortle      -17     63      80 water    59          1
##  9 Blastoise      -17    103     120 water    79          1
## 10 Caterpie        -5     30      35 bug      45          1
## #  with 694 more rows

# Using select, mutate, and stringr
totalpokemon %>% mutate(type1 = str_replace(type1, "grass", "Grass")) %>% 
    select(name, type1, everything())

## # A tibble: 704 x 6
##    name       type1 attack defense    HP Generation
##    <chr>      <chr>  <dbl>   <dbl> <dbl>      <dbl>
##  1 Bulbasaur  Grass     49      49    45          1
##  2 Ivysaur    Grass     62      63    60          1
##  3 Venusaur   Grass    100     123    80          1
##  4 Charmander fire      52      43    39          1
##  5 Charmeleon fire      64      58    58          1
##  6 Charizard  fire     104      78    78          1
##  7 Squirtle   water     48      65    44          1
##  8 Wartortle  water     63      80    59          1
##  9 Blastoise  water    103     120    79          1
## 10 Caterpie   bug       30      35    45          1
## #  with 694 more rows
…
# Calculating at least 5 summary statistics for numeric
# variable: 'defense'
totalpokemon %>% summarize(mean = mean(attack, na.rm = T), n_rows = n(), 
    n = n_distinct(defense), min = min(defense), max = max(defense))

## # A tibble: 1 x 5
##    mean n_rows     n   min   max
##   <dbl>  <int> <int> <dbl> <dbl>
## 1  76.5    704   101     5   230

# Defining my own function inside summarize
totalpokemon %>% summarize(offense = attack - defense)

## # A tibble: 704 x 1
##    offense
##      <dbl>
##  1       0
##  2      -1
##  3     -23
##  4       9
##  5       6
##  6      26
##  7     -17
##  8     -17
##  9     -17
## 10      -5
## #  with 694 more rows
…
## # A tibble: 6 x 2
##   Generation     n
##        <dbl> <int>
## 1          1   151
## 2          2    99
## 3          3   134
## 4          4   104
## 5          5   150
## 6          6    66

# Provide table of counts for categorical variable: 'name'
totalpokemon %>% count(name)

## # A tibble: 704 x 2
##    name           n
##    <chr>      <int>
##  1 Abomasnow      1
##  2 Abra           1
##  3 Absol          1
##  4 Accelgor       1
##  5 Aerodactyl     1
##  6 Aggron         1
##  7 Aipom          1
##  8 Alakazam       1
##  9 Alomomola      1
## 10 Altaria        1
## #  with 694 more rows
…
# Provide table of counts for categorical variable:
# 'Generation' after using group_by
totalpokemon %>% group_by(type1) %>% count(Generation)

## # A tibble: 97 x 3
## # Groups:   type1 [18]
##    type1 Generation     n
##    <chr>      <dbl> <int>
##  1 bug            1    12
##  2 bug            2    10
##  3 bug            3    12
##  4 bug            4     7
##  5 bug            5    18
##  6 bug            6     3
##  7 dark           2     5
##  8 dark           3     4
##  9 dark           4     3
## 10 dark           5    13
## #  with 87 more rows

# Provide table of counts for categorical variable: 'name'
# after using group_by
totalpokemon %>% group_by(type1) %>% count(name)

## # A tibble: 704 x 3
## # Groups:   type1 [18]
##    type1 name           n
##    <chr> <chr>      <int>
##  1 bug   Accelgor       1
##  2 bug   Ariados        1
##  3 bug   Beautifly      1
##  4 bug   Beedrill       1
##  5 bug   Burmy          1
##  6 bug   Butterfree     1
##  7 bug   Cascoon        1
##  8 bug   Caterpie       1
##  9 bug   Combee         1
## 10 bug   Crustle        1
## #  with 694 more rows
…
